03:04:13 saysadie &bull; Gah! 
03:04:33 saysadie &bull; The bunny has become an overexposed japanese caroon character. 
03:04:48 saysadie &bull; cartoon even. 
03:05:17 saysadie &bull; that's like, :( 
03:05:42 saysadie &bull; :p 
08:10:18 Aaron Hong &bull; Now on TV, Spy Kids. 
