02:11:42 saysadie  "The things I do for money, I'll never understand 
02:12:26 saysadie  The world is just a marble in the paaaaaaaaaaaalm of my hand... 
02:13:02 saysadie  The things I waste my time on I'll never understand 
02:13:25 saysadie  I used to be quite practical, but now I find I'm tactical 
02:13:43 saysadie  I scrape and scheme and struggle hard to get myself ahead 
02:14:02 saysadie  have no concern for anyone buuuuuut meee... 
02:14:34 saysadie  yawns 
10:47:00 sprunkner &bull; I'm hungry too 
10:47:02 sprunkner &bull; I'm hungry too 
10:47:16 sprunkner &bull; Woops, did that twice 
10:47:30 sprunkner &bull; I have to frickin' leave California today and lok for a job in Phoenix 
10:47:45 sprunkner &bull; Not exciting, I tell you. 
10:47:59 sprunkner &bull; I think I will have some ice cream with MV 
10:48:20 sprunkner &bull; Hey MV, you still on? 
10:49:10 sprunkner &bull; Wherever you are, we are having icre cream... 
13:46:45 Rebis &bull; icre cream? that sounds... boozle! 
14:18:14 Optimus Prime Rib &bull; Ichre cream? ick 
14:19:27 Rebis &bull; ocre ice cream - it's red, and you LOVE it! 
17:47:01 Metal Vendetta &bull; an acre of ochre ice cream - it's big and it's red and you love it!!! 
19:09:05 Optimus Prime Rib &bull; Ochre Cream just sounds like sodomy gone horribly horribly wrong 
19:15:06 Rebis &bull; Ogre Cream? that some kind of sun block? 
19:19:30 Optimus Prime Rib &bull; or maybe Ogre Repellant 
19:19:47 Optimus Prime Rib &bull; badly marketed sunblock from the makers of Shrek 
22:31:15 saysadie &bull; Ogre ice cream?!?! 
22:31:29 saysadie &bull; "How does it taste?" 
22:31:34 saysadie &bull; "Green!" 
22:32:01 saysadie &bull; Ochre Pgre ice cream. Same thing, but this one tastes red. 
22:32:22 saysadie &bull; Ogre! Ogre! not Pgre. Bah. 
22:32:57 saysadie &bull; How does red taste? Like cherry, of course. No, not the other way around... 
22:33:55 saysadie &bull; Pirple tatses of grapes, dontcha know. Always. except when it doesn't. 
22:34:25 saysadie &bull; argh! My fingers won't type for me tonight. Bad fingers! Bad! 
23:02:00 saysadie &bull; "Oiks" is a funny word. 
23:02:10 saysadie &bull; oiksoiksoiksoiksoiksoiksoiks 
23:02:32 saysadie &bull; ... 
23:02:42 saysadie &bull; yeeaaaah. 
