05:29:39 Aaron Hong &bull; This week's haul: Liger Zero X. 
10:38:32 Predabot &bull; All these japanese and corean toys that you score, I can honestly say that most of
10:38:32 Predabot &bull;  them I have no clue what they are. 
10:38:44 Predabot &bull; Not even the TF ones! :D 
12:20:12 Aaron Hong &bull; First of all it's 'Korean', and secondly I don't think the Korean toy scene really
12:20:12 Aaron Hong &bull;  took off. There was this Korean release of Seismosaurus from Zoids I was
12:20:12 Aaron Hong &bull;  considering, then I thought naah. 
