01:21:49 Aaron Hong &bull; And the storage space in the mouth really can't hold 8 figures' worth of weapons. 
10:55:38 Predabot &bull; Eey, props to you. You certainly did a good find. Since I think those vehicles
10:55:38 Predabot &bull;  released towards the end are rather hard to get a hold of. :) 
16:27:59 saysadie &bull; Mob cutter, I tell you. MOB CUTTER! 
23:05:53 Aaron Hong &bull; It might have been substandard molding that caused the new MOTU's downfall. I had to
23:05:53 Aaron Hong &bull;  trim the notch on the missile of my Shield Strike He-Man just to make it stay in
23:05:53 Aaron Hong &bull;  there until you hit the button. 
