04:50:43 Brendocon &bull; Bob?  Funny name for a girl... 
07:31:05 Aaron Hong &bull; They wanted a boy. Y'know, just like your parents did. 
08:53:34 Brendocon &bull; Awh, poor Aaron.  It must be hard going through life without anything resembling wit. 
08:54:08 Brendocon &bull; But don't worry, Shirley.  One day you'll realise that nobody likes you and you'll be
08:54:08 Brendocon &bull;  able to **** off and leave us all in peace! 
20:14:10 Aaron Hong &bull; So what's keeping you around? Masochism? 
20:24:48 Aaron Hong &bull; On the other hand it seems like I finally hit a nerve there. Heh. Fun. 
20:25:27 Aaron Hong &bull; Mind you look both ways before crossing now. 
20:43:22 Metal Vendetta &bull; Feel the love in the room 
20:43:44 Metal Vendetta &bull; Ooh ooh yeah 
20:43:58 Metal Vendetta &bull; Can you feel it? 
20:44:15 Metal Vendetta &bull; Can you feeeel it? 
20:44:49 Metal Vendetta &bull; This one's going out to all you motherf***ers 
20:45:03 Metal Vendetta &bull; Peace y'all 
20:45:18 Metal Vendetta  shakes booty 
20:45:41 Metal Vendetta  shakes it to the right 
20:45:55 Metal Vendetta  shakes it to the left 
20:46:14 Metal Vendetta  shakes it all around 
20:46:39 Metal Vendetta  shakes it back down 
20:47:44 Metal Vendetta  takes out a cigarette 
20:47:58 Metal Vendetta  lights it 
20:48:39 Metal Vendetta &bull; Chaka Demus and Pliers, y'all 
