00:32:43 IronHide  agrees 
03:13:00 Predabot &bull; I just love that TF-cartoon vinjette. :) So, he's only friendly to you & the other
03:13:00 Predabot &bull;  girl that works with you Sadie? >:)) I wonder why that might be... 
06:28:18 spiderfrommars &bull; My boss touches me inappropriately... 
07:34:33 Eline &bull; mine is away most of the time 
14:03:37 Optimus Prime Rib &bull; Mine touches me most appropriately...like bitch slapping me when I do
14:03:37 Optimus Prime Rib &bull;  something dumb 
16:13:53 Predabot &bull; It just kills you that there are higher executives in your organisation doesn't it
16:13:53 Predabot &bull;  OPR? 
17:58:35 saysadie &bull; It's because we're chicks, duh. 
17:59:44 saysadie &bull; what he does is complain to us about the other people we work with. 
18:01:41 saysadie &bull; Not that it really matters all that much. :p 
18:02:30 saysadie  thinks Predabot has too much time on his hands... 
18:16:35 Rebis  needs to wash his hands more often. too much time on them... 
18:17:21 Rebis &bull; it accumulates faster than chavs on a moped! 
21:48:57 The Last Autobot &bull; thinks nobody comes here too often... 
21:49:12 The Last Autobot &bull; come 
21:49:54 The Last Autobot &bull; my boss touches one or two of his consultants 
21:50:22 The Last Autobot &bull; thankfully Im not in his list 
