18:11:00 Rebis &bull; I find that incredibly difficult to believe. 
18:12:37 Rebis &bull; Well, maybe not 'incredibly', but surely the birth of Aaron Hong was an event that goes
18:12:37 Rebis &bull;  beyond "nothing much"? 
