04:45:12 IronHide &bull; i gotta take a dig... 
06:14:18 Aaron Hong &bull; I'll be in the shower. 
14:25:06 saysadie &bull; Where the hell did the petition go?!? 
14:25:51 saysadie &bull; My petition! My precious fictitional petition! 
14:26:07 saysadie  sobs 
14:52:51 Metal Vendetta  hands saysadie a tissue 
14:55:35 Metal Vendetta  blinks 
14:55:53 Metal Vendetta  checks pockets 
14:56:26 Metal Vendetta &bull; Hey. did you take my wallet? 
15:55:04 Optimus Prime Rib &bull; heh thats really his spankerchief 
19:58:38 saysadie &bull; why would I take your wallet? All you've got in here is nudie pictures, ID and a
19:58:38 saysadie &bull;  member's card for that underground "club" 'round the corner... 
19:58:54 saysadie &bull; Oh... I mean, "No" 
21:17:36 Aaron Hong &bull; I... never mind. 
