02:11:43 IronHide &bull; Not like total ass. A good employee employer relationship is key, but you can't be
02:11:43 IronHide &bull;  there friend ALL the time. 
08:53:04 Predabot &bull; Ironhide...are you in an employer position yourself? 
12:02:09 IronHide &bull; have been......I've also had to work for a friend.  
14:11:35 Rebis &bull; Good employer phrases: 
14:11:46 Rebis &bull; "It's 9.05! Get some goddamn work done!" 
14:12:02 Rebis &bull; "It's 4.55! Ah, take the rest of the afternoon off!" 
14:12:59 Rebis &bull; only applies to the 9 'til 5 shift, obviously 
15:38:19 Predabot &bull; God, sometimes I'm greatful for not ever having had a job...Sometimes.. 
15:54:59 Eline &bull; but work can be fun! :) 
17:18:48 Predabot &bull; Really? I suppose utilising photshop like I'm doing now on my current internship is
17:18:48 Predabot &bull;  kinda fun. But not excel. :( 
19:39:36 Rebis &bull; having a job = having to work -> getting money 
19:39:55 Rebis &bull; not having a job = not having to work -> not getting money 
19:40:51 Rebis &bull; and since money is the root of all evil, having a job implies (->) acquiring evil 
19:41:30 Rebis &bull; when one approaches infinity with the limiting factors, of course. 
19:42:19 Rebis &bull; however, as this is rarely (read: never) the case, one could say that having a job is
19:42:19 Rebis &bull;  good 
19:42:36 Rebis &bull; which, of course, it is 
19:43:22 Rebis &bull; unless you happen to be the guy who was pipped at the post by your newly-employed self,
19:43:22 Rebis &bull;  in which case it isn't, obviously. 
19:43:53 Rebis &bull; I'm now off to solve Fermat by non algebraic means.... 
20:09:14 IronHide  thinks Rebis has too much time on his hands... 
20:33:06 saysadie &bull; My boss is cool. He can be all buddy-buddy or he can be a right asshole.  
20:33:49 saysadie &bull; Erm... except, it seems, with me and the other girl I work with. :p 
20:35:35 saysadie  thinks Ironhide has too much time on his hands... 
22:29:03 The Last Autobot &bull; Mmmm, nobody home 
22:29:30 The Last Autobot &bull; Ill return after these messages 
22:29:34 The Last Autobot &bull; uturururnnn 
