07:15:02 Aaron Hong &bull; Well, it's either this or update TransFans: Bunch of Buggers again. 
13:40:54 Predabot &bull; "update TransFans: Bunch of Buggers"  
13:41:12 Predabot &bull; Eggcelent 
13:59:25 Aaron Hong &bull; This week's haul: Energon Omega Supreme. More than eggcelent. 
15:17:13 Predabot &bull; oooh. Was it the Omega Sentinel repaint? Cause that one looks better than the
15:17:13 Predabot &bull;  original. 
20:09:44 spiderfrommars &bull; shazam 
22:01:43 Aaron Hong &bull; Naw, it's the normal colored one. Personally I think the battleship looks better in
22:01:43 Aaron Hong &bull;  gray though. 
