12:12:37 Impactor returns 2.0 &bull; bum farts! 
18:07:17 Rebis &bull; can't say I have, but if they show the Chubb Chubbs, it's a good one. 
19:57:21 Aaron Hong &bull; They showed Chubb Chubbs twice to my knowlege. Seems like it's the only big-budget
19:57:21 Aaron Hong &bull;  CGI one they have. Which is horrible, I've downloaded some real gems in the past.
19:57:21 Aaron Hong &bull;  Ever seen the Pixar one about the old man playing chess? 
