05:33:17 IronHide &bull; I saw that one!  
14:27:15 Metal Vendetta &bull; &gt;_&lt; 
14:27:29 Metal Vendetta &bull; o_o 
14:27:40 Metal Vendetta &bull; &gt;_&lt; 
14:27:48 Metal Vendetta &bull; o_o 
14:27:56 Metal Vendetta &bull; O_O 
14:28:14 Metal Vendetta &bull; &lt;_&lt; 
14:28:34 Metal Vendetta &bull; &gt;_&gt; 
14:28:43 Metal Vendetta &bull; o_o 
14:29:00 Metal Vendetta &bull; &gt;_&lt; 
15:11:42 Rebis &bull; and I'm all, like, "whatever!" 
18:27:32 quintesson_judge &bull; YO! 
21:00:33 Optimus Prime Rib &bull; RIB! 
21:00:49 Optimus Prime Rib &bull; Youre DAMN right.. 
