06:24:45 saysadie &bull; yes, stop being creepy. 
06:25:26 saysadie &bull; Rebis is no longer keeper  of the roof? :( 
06:26:35 saysadie &bull; I'm drunk. This has got to be the first time in almost two years I've uesd the 'net
06:26:35 saysadie &bull;  while pissed. I usually stay at my best friend's place, but I instead opted to come
06:26:35 saysadie &bull;  home. 
06:27:11 saysadie &bull; tomorrow will see me changning all my passwords to something longer and harder to
06:27:11 saysadie &bull;  remember while pissed. 
06:30:19 saysadie &bull; preds, kinda seeing someone. drop the creepy. 
12:05:41 Predabot &bull; All right then. =( I'll make an attempt. =_= {should have checked chat before posting
12:05:41 Predabot &bull;  today..} 
17:21:54 Rebis &bull; your cat is french? Mon dieu! 
17:24:21 Rebis &bull; "Would Sim  Preds be anything like Preds?" 
17:26:36 Rebis &bull; they're building a roof (one would suspect some sort of structure to go under it as well)
17:26:36 Rebis &bull;  across the road from me. 
17:27:23 Rebis &bull; Roof thieves are more likely to target defenceless A-frames, I've found. 
17:28:03 Rebis &bull; this is two days later, isn't it? 
17:28:10 Rebis &bull; oh dear... 
17:59:07 Predabot &bull; Memory-access problems with yer noggin? 
18:58:43 Rebis &bull; temporal anomaly 
19:31:14 Aaron Hong &bull; Ah, the worst kind. 
19:34:31 Aaron Hong &bull; This week's haul: Beast Machines Tank Drone, Red Tornado and Dr Fate from JLU. 
