02:06:21 Aaron Hong &bull; () () 
02:06:28 Aaron Hong &bull; (*.*) 
02:06:34 Aaron Hong &bull; (" ") 
02:06:43 Aaron Hong &bull; m m* 
02:07:03 Aaron Hong &bull; (Stoned bunny. Note how I included the tail.) 
02:07:36 Aaron Hong &bull; \\ // 
02:07:48 Aaron Hong &bull; (o.o) 
02:08:03 Aaron Hong &bull; (" ") 
02:08:13 Aaron Hong &bull; m m^^ 
02:08:26 Aaron Hong &bull; Piiii-KA! 
02:08:34 Aaron Hong &bull; \\ // 
02:08:51 Aaron Hong &bull; (o.o) > 
02:09:00 Aaron Hong &bull; (" ")> 
02:09:07 Aaron Hong &bull; m m> 
02:09:18 Aaron Hong &bull; (modified tail) 
08:37:00 Predabot &bull; Gah! It's the electric mouse! 
