01:03:45 IronHide &bull; Hiyo!!! 
01:04:37 IronHide &bull; ......guess not... 
01:04:46 IronHide  escapes 
01:05:16 Aaron Hong &bull; Hyah! 
01:05:35 Aaron Hong  updated TransFans: Bunch of Buggers. 
01:12:47 IronHide &bull; yeah....noticed.... 
03:48:32 Optimus Prime Rib &bull; HAHAHAHA  
04:22:55 IronHide &bull; Pipe down you, or no lovin 
06:27:07 Aaron Hong &bull; WHAAAAHAAAHAAAHOOOHOOOHOOOEY *gasp* 
18:29:59 Rebis &bull; Always the same 
18:30:08 Rebis &bull; except when it isn't. 
18:30:33 Metal Vendetta &bull; Indeed. 
18:35:21 Rebis &bull; Best First, Tramp in a box. 
18:35:25 Rebis &bull; Best First, Tramp in a box. 
18:35:32 Rebis &bull; Best First, Tramp in a box. 
18:36:28 Rebis &bull; Woof! I'm a Cow! 
18:36:53 Rebis &bull; I love that image. :D 
19:08:55 IronHide &bull; Moo! I'm a Chicken! 
