00:03:32 Aaron Hong &bull; Now they're re-running Justice League from the first ep up. 'Secret Origins' ep 1. 
11:12:04 Predabot &bull; AHAHA! ......... 
11:13:08 Predabot &bull; So typical of Cartoon Network, who I'm going to take a guess at is the channel your
11:13:08 Predabot &bull;  watching? Altho almost any other channel that shows cartoons seems to do the same
11:13:08 Predabot &bull;  thing... 
11:57:10 Hound &bull; When are we banning Predabot? 
19:56:40 Pissin' Poonani &bull; I'd like to place a vote for 'last year' please. 
23:33:03 Aaron Hong &bull; Today on X-Men Evolution: Nick Fury makes an appearance. I'm pretty sure I missed
23:33:03 Aaron Hong &bull;  this one. They got Wolverine to agree to their terms by holding his bike hostage.
23:33:03 Aaron Hong &bull;  :) 
23:36:47 Aaron Hong &bull; They even went and mentioned that Wolverine used to work with Captain America,
23:36:47 Aaron Hong &bull;  complete with flashbacks. Does that make Wolverine Captain Canada? :P 
