01:11:01 Aaron Hong &bull; Now watching The Batman. Soon to be part of A Justice League, which includes within
01:11:01 Aaron Hong &bull;  its ranks That Superman, This Wonder Woman and Some Green Lantern. 
16:27:43 Predabot &bull; They say that bat-show sucks.... 
