08:06:15 Aaron Hong &bull; TV. Now. SPIDER-MAN. 
11:02:43 Predabot &bull; Is. It. The. 3D. MTV. Version? 
14:25:15 Shanti418 &bull; Anyone? 
14:28:01 Shanti418 &bull; Anyone ever eaten at Schlotzsky's Deli? 
22:11:25 Aaron Hong &bull; Pred - the movie, actually. 
