15:18:17 Optimus Prime Rib &bull; Happy 3 days past Christmas!  
15:18:35 Optimus Prime Rib &bull;         
16:47:39 Predabot &bull; Yes? 
16:47:55 Predabot &bull; Nothing but an empty space as conclusion, eh? 
16:48:17 Predabot &bull; {sniggers, as he managed to chew his way out of Aarons box} 
