14:03:50 Aaron Hong &bull; This week's haul: Galaxy Force Live Convoy. 
14:04:20 Aaron Hong &bull; I don't really like the name a lot, and I like Evac even less, so hell I'm just
14:04:20 Aaron Hong &bull;  gonna call him Air Prime. 
