03:01:06 Aaron Hong &bull; Now watching Heavy Gear. The show, not the game. 
03:02:25 Aaron Hong &bull; I barely even bothered with the game and now this show is nothing like it. They
03:02:25 Aaron Hong &bull;  threw out the war storyline, and now it's Heavy Gear arena competitions, which
03:02:25 Aaron Hong &bull;  would be cooler if there were more than two Gear teams in the entire universe. 
