10:02:04 Predabot &bull; Hmm. Good luck. Aaron, did you and/or anyone else in the Singaporian forces get
10:02:04 Predabot &bull;  commandeered out last year, to help with rescue-work in neigbouring Thailand? 
10:02:34 Predabot &bull; That Tsunami was pretty darn big... 
12:22:07 Aaron Hong &bull; No, not really. Our unit is more reserved for the last-ditch invasion deterrents,
12:22:07 Aaron Hong &bull;  mostly, never any rescue work. 
