06:37:08 saysadie &bull; Innit though? gotta love petty. 
06:50:50 Aaron Hong &bull; There's a man going round and taking names 
06:51:05 Aaron Hong &bull; An' he decides who to free and who to blame.  
06:51:13 Aaron Hong &bull; Everybody won't be treated all the same.  
06:51:20 Aaron Hong &bull; There'll be a golden ladder reaching down.  
06:51:27 Aaron Hong &bull; When the man comes around.  
06:51:43 Aaron Hong &bull; The hairs in your ass will stand up 
06:51:50 Aaron Hong &bull; At the terror in each sip and in each sup.  
06:52:14 Aaron Hong &bull; Or perhaps from the babes in DD-cups 
06:52:29 Aaron Hong &bull; Assuming there are any to be found 
06:52:38 Aaron Hong &bull; When the man comes around. 
06:52:47 Aaron Hong &bull; Hear the trumpets, hear the pipers.  
06:52:54 Aaron Hong &bull; One hundred million angels singin'.  
06:53:07 Aaron Hong &bull; Multitudes are marching to the big kettle drum.  
06:53:14 Aaron Hong &bull; Voices callin', voices cryin'.  
06:53:19 Aaron Hong &bull; Some are born an' some are dyin'.  
06:53:45 Aaron Hong &bull; Some are born an' some are dyin'.  
06:53:54 Aaron Hong &bull; It's Alpha's and Omega's Kingdom come.  
07:07:29 Aaron Hong &bull; shtdblpstdgdfckt. 
11:08:59 Legion &bull; If someone asks if you're a god, you say YES! 
14:18:21 Predabot &bull; ZZAAAZaaAzAApPP!! 
19:13:31 Rebis  Runnin' down a dream 
19:13:51 Rebis  That would never come to me 
19:14:24 Rebis  Wokin' on a mystery, goin' wherever it leads 
19:14:38 Rebis  I'm runnin' down a dream" 
23:41:57 saysadie &bull; Heeey, I was just listening to that... 
