00:17:38 Aaron Hong &bull; ...no, just trying to work a mouse while half asleep... 
00:18:31 Aaron Hong &bull; I've tried drawing while half asleep, it just comes out as stupid little squiggles. 
02:18:17 Aaron Hong &bull; Current fun thing of the moment: PopCap games. TumbleBugs is a good way to start you
02:18:17 Aaron Hong &bull;  off. 
19:16:13 Rebis &bull; boost the mouse's morale, and maybe it'll boost its productivity? 
