01:53:47 Aaron Hong &bull; They brought in the last of the micro gestalts? First time I heard of that. 
01:54:24 Aaron Hong &bull; And Primus and Starscream are even bigger than OP, so I might pass... on Starscream.
01:54:24 Aaron Hong &bull;  Primus is teh w00t. 
01:55:16 Aaron Hong &bull; I have a feeling Classics Optimus will be missing his trailer... seriously, at
01:55:16 Aaron Hong &bull;  Voyager size you can't squeeze a trailer into the box. 
07:18:20 Aaron Hong &bull; Now watching X-Men 2. 
