05:30:49 saysadie &bull; chuggachuggachuggachugga choo chooooooo 
07:37:22 Aaron Hong &bull; Yeah, that Barda's a steam engine, isn't she? 
07:38:00 Aaron Hong  puts on the karaoke and performs '(She's A) Brick House' 
07:59:46 Predabot &bull; hehe 
