08:28:21 Predabot &bull; Yay! :) Bionicle! 
08:29:19 Predabot &bull; Oh... how grand the fanfic universe that I and a friend built within my mind... Yet
08:29:19 Predabot &bull;  nothing has ever come of it... except some garbled and weird badly done
08:29:19 Predabot &bull;  half-completed fanmag. :p 
08:30:11 Predabot &bull; Well, I did do a bio of the last character I created recently. The ultimate product of
08:30:11 Predabot &bull;  elemental bionic engineering. 
