06:10:43 Aaron Hong &bull; ...culture...? 
09:22:34 Predabot &bull; Errm... yes.. it has to do with culture... sort of... -_- 
13:02:04 Aaron Hong &bull; ...oookay... 
13:02:46 Aaron Hong &bull; Not much toy haul to report, since the only TF Cybertrons at clearance are the
13:02:46 Aaron Hong &bull;  release that Ransack and Hardtop came from, and only the Scout class ones. 
