03:32:57 Aaron Hong &bull; Another show we're getting is How 2. Those of you from outside the UK only need to
03:32:57 Aaron Hong &bull;  google for Gail McKenna. 
16:43:18 Rebis &bull; Fred Dinenage or Gareth Jones might be useful too. 
