16:03:55 Rebis &bull; A day of music heaven and music hell 
16:04:59 Rebis &bull; music hell: the mp3 server at work being 'tampered with', so all it'd play was johnny
16:04:59 Rebis &bull;  cash 
16:05:34 Rebis &bull; music heaven: tom petty: anthology double-cd arriving in the post. 
