04:31:43 Best First &bull; sorry. this is bull****. the only way Brend is elitist is in that he doesn't suffer
04:31:43 Best First &bull;  fools gladly 
04:32:13 Best First &bull; the notion that he has been cler that he thinks your 'less than human' is also
04:32:13 Best First &bull;  nonsense 
04:33:01 Best First &bull; if anything i suspect he think that you are spectacularly human 
04:33:25 Best First &bull; YOU have been asked not to spam up the chat by ME. 
04:33:42 Best First &bull; concerns about yoru contribution to teh chat were raised by someone who IS NOT BREND 
04:34:19 Best First &bull; YOU have previulsy been asked not to try and hijack topics with power ranger crap by
04:34:19 Best First &bull;  ME 
04:34:50 Best First &bull; people don't respond to a lot of your posts because they don't want to - they do
04:34:50 Best First &bull;  this unprompted 
04:36:01 Best First &bull; Brend has no dues - he's valued member of the community.  
04:37:17 Best First &bull; And the notioh that he doesn't have better things to do than push you off the borad
04:37:17 Best First &bull;  is (hilarious) paranoid nonsesne 
04:37:28 Best First &bull; thats paranoid nonsesne - see? 
04:39:18 Best First &bull; however ironically your paranoid nonsense will push you off the board because as teh
04:39:18 Best First &bull;  rules clearly state you will abide by the mods decison - not start flaming another
04:39:18 Best First &bull;  member of the site and claiming that yu are only being told of becaus their is a
04:39:18 Best First &bull;  nasty campaign against you 
04:41:08 Best First &bull; so a) obey the rules b) apologise to Brend c) grow up d) seek mental help for your
04:41:08 Best First &bull;  paranoia or e) get banned 
05:09:29 Legion &bull; so... what'd i miss? *lights bbq* 
05:48:05 Best First &bull; light insanity i think 
06:53:49 spiderfrommars &bull; So whats everyone doing tonight?  
07:21:42 Brendocon &bull; In theory, packing up eBay sales and burning a CD for somebody 
07:21:57 Brendocon &bull; Which, in practise probably translates into going down the pub 
08:30:55 Best First &bull; going to NYC 
08:43:27 Brendocon &bull; How long for? 
08:51:04 Best First &bull; 4 nights 
08:56:24 Brendocon &bull; but 4 how many nights? 
08:56:31 Brendocon &bull; nyuck 
08:56:49 Brendocon &bull; sorry.  that should be a bannable offence 
09:01:19 Best First &bull; the nyuck or the terrible gag? 
09:19:19 Brendocon &bull; The terrible gag. 
09:19:29 Brendocon &bull; Nyucking should be rewardable with money 
09:44:45 Best First &bull; if you hang around the right parts of waterloo it is 
10:28:09 Brendocon &bull; Speaking from experience? :o 
