02:51:59 Predabot &bull; You think there was any deserved wins? 
03:15:50 Aaron Hong &bull; To be honest, I'm surprised that The Office did that well especially since it's a US
03:15:50 Aaron Hong &bull;  remake of the British version, which I hear lauded here on TransFans every so
03:15:50 Aaron Hong &bull;  often. And that business about Lost being left out his year - maybe they thought it
03:15:50 Aaron Hong &bull;  was getting too weird, or something. 
