03:06:46 Aaron Hong &bull; Just uploaded transistor radio comic. 
06:54:11 Aaron Hong &bull; Will be out toyhunting tomorrow... yeah, again... 
08:32:31 Predabot &bull; Good luck. =) 
22:08:13 Aaron Hong &bull; Another highlight for today - at 9 pm, a certain Hongkong movie called Infernal
22:08:13 Aaron Hong &bull;  Affairs. Most of you are probably more familiar wih the US remake, The Departed. 
