08:04:57 Aaron Hong &bull; Oh yeah. :) Funny thing is they CUT BITS OUT for the home broadcast. The bit with
08:04:57 Aaron Hong &bull;  Dash gating-punching the saucer pilot, and the bit early on with Syndrome using
08:04:57 Aaron Hong &bull;  zero-point energy to slam Mr Incredbile around a bit. 
08:05:50 Aaron Hong &bull; On another note, the Adidas 'Jose +10' commercial is in running in Singapore, and
08:05:50 Aaron Hong &bull;  I'm not sure I get it. Not that into soccer. 
08:06:16 Aaron Hong &bull; 'Beckenbauer?' -Oliver Kahn 
20:29:01 Predabot &bull; Hey Aaron, what do you think about this ol' colouring of mine?
20:29:01 Predabot &bull;  http://transfans.tfarchive3.com/phpBB2/viewtopic.php?p=75956#75956 
