09:50:46 starscreamsjets &bull; test  
09:51:37 starscreamsjets &bull; purple 
09:53:14 starscreamsjets &bull; Friday 
09:53:14 starscreamsjets &bull; Friday 
09:53:21 starscreamsjets &bull; friday  
09:53:28 starscreamsjets &bull; test 
09:55:34 starscreamsjets &bull; hellllllllooooooo 
09:57:28 starscreamsjets &bull; its cold 
09:58:32 starscreamsjets &bull; woops 
10:00:47 starscreamsjets &bull; hjhj 
10:03:15 starscreamsjets &bull; jk 
10:05:28 starscreamsjets &bull; boooo 
10:09:58 starscreamsjets &bull; kds 
17:37:09 Predabot &bull; Quiet you. 
