05:35:35 Predabot &bull; I think it sounds pretty good a deal. 
05:36:00 Predabot &bull; that's only 21$ dollars each. 
21:09:13 Aaron Hong &bull; I'm not quite that hot on Ricochet or Rollbar, though... though maybe, Ricochet
21:09:13 Aaron Hong &bull;  could stand in as a Nemesis Smokescreen, and I know this place holding on to a
21:09:13 Aaron Hong &bull;  loose Bluestreak, and together with the Prowl already in my collection, the
21:09:13 Aaron Hong &bull;  Bladehead Brothers will be complete again. 
