08:43:42 Aaron Hong &bull; Since we're doing YouTube clips now, tell me what you think about the two hottest
08:43:42 Aaron Hong &bull;  fave finalists in Singapore Idol. 
08:44:38 Aaron Hong &bull; Here's Jonathan Leong, who may go the way of Chris Daughtry. 
08:44:45 Aaron Hong &bull; http://www.youtube.com/watch?v=bgaBCbQPPwc&search=singapore%20idol 
08:45:51 Aaron Hong &bull; http://www.youtube.com/watch?v=bgaBCbQPPwc&search=singapore%20idol 
08:46:01 Aaron Hong &bull; http://www.youtube.com/watch?v=EiQfnWuHgE0&search=singapore%20idol 
08:46:29 Aaron Hong &bull; double fooking post... Here's another hot fave, for different reasons, Paul Twohill. 
08:46:37 Aaron Hong &bull; http://www.youtube.com/watch?v=ROWfBYQt8aA&search=singapore%20idol 
08:46:43 Aaron Hong &bull; http://www.youtube.com/watch?v=sjx16BaVXhE&search=singapore%20idol 
21:28:43 Predabot &bull; First of all, why is everybody speaking english?? Second of all, what's with the
21:28:43 Predabot &bull;  english names?? 0__0 
21:29:47 Predabot &bull; Chris is a looker and has a not too shabby voice, but sometimes seems to overestimate
21:29:47 Predabot &bull;  his voice-capabilities, and why can't he stand still more when singing a calm tune? 
21:30:22 Predabot &bull; Paul.. is a bit freaky actually. ^^ And he has a couple of false tones here and there.
21:30:22 Predabot &bull;   
21:30:38 Predabot &bull; THIRD: the wummun' in the panel are all hot. 
