11:53:08 The Last Autobot &bull; With all the things that bother me as of late, I really hope so... 
17:40:15 Rebis &bull; would it put your mind at rest to know it comes out every day? 
17:40:35 Rebis &bull; except sundays, of course, when it's the news of the world. 
