00:39:18 Aaron Hong &bull; And brought home Alt Prime too - any appearance in my toy comic will have to wait
00:39:18 Aaron Hong &bull;  till the right script comes along. 
03:44:43 Aaron Hong &bull; ...and till I figure how how the part of the upper legs that should extend is so
03:44:43 Aaron Hong &bull;  damn stiff. 
