07:02:23 Aaron Hong &bull; Sorry, that would be me. 
07:02:45 Aaron Hong  starts clearing all gunblade parts and tools from chatroom 
07:03:03 Aaron Hong &bull; Almost finished fixing up this new folding model now. 
