06:48:04 Predabot &bull; Ahaaa, yes, they are! :D 
06:48:18 Predabot &bull; We transfans is a sleepy bunch. 
17:41:15 Rebis &bull; Back on tour 
17:41:21 Rebis &bull; One, two, three 
17:41:28 Rebis &bull; We are back on four 
17:41:36 Rebis &bull; You better wake up 
