04:06:25 Predabot &bull; Give Computron an actual Computron. 
04:07:22 Predabot &bull; Then you can divide him as a joke, and every half has got only one 5th a brain, and
04:07:22 Predabot &bull;  one fifth of his vocabulary. Ending the sentences huey-duey n louey style. 
07:28:50 Aaron Hong &bull; Not sure how I can work that into the one frame and two lines of dialogue (it'll be
07:28:50 Aaron Hong &bull;  one line if I work out what figure to be Legion) that I've scripted for him... 
