04:45:34 Aaron Hong &bull; It's easier to source for props anyways. Just found a fantastic use for this
04:45:34 Aaron Hong &bull;  transistor radio we got as a free gift. 
17:21:39 Rebis &bull; early warning device for detecting approaching motorcycle vampire zombies? 
22:10:34 Aaron Hong  takes it down but subs motorcycle zombies for hellspawns of Malebogia 
