04:27:57 saysadie &bull; Preds assumes too much.  
04:28:23 saysadie &bull; Hello, spamroom! I'm obsessed with hats. 
07:25:51 Aaron Hong &bull; Singapore government gave us some spending money over the weekend. Just got reissue
07:25:51 Aaron Hong &bull;  Star Convoy for US$44. 
15:33:56 Rebis &bull; and now haven't got enough for the extra cache of flashbangs that the money was meant
15:33:56 Rebis &bull;  for. ;) 
