00:56:53 Aaron Hong &bull; But won't the thread get really image-heavy after a while? It's already happening
00:56:53 Aaron Hong &bull;  even with one thread for each story arc, and over at TFW2005 they're doing one
00:56:53 Aaron Hong &bull;  thread per chapter for Them Funny Robots. 
03:49:47 Aaron Hong &bull; Made a last minute casting change for the next 'Special Guests' before putting it up
03:49:47 Aaron Hong &bull;  here. 
