05:36:04 Aaron Hong &bull; Added to both my toy comics in Fanart - the Special Guests one is the only really
05:36:04 Aaron Hong &bull;  new one. 
06:29:57 Aaron Hong &bull; Yo. 
06:30:38 Aaron Hong &bull; Movies tonight, fo shizzle. Swordfish, from the producer of The Matrix, and Memento,
06:30:38 Aaron Hong &bull;  with part of the cast of The Matrix. Word. 
