06:49:33 Aaron Hong &bull; Having an office in the country's shopping area can do things to your wallet.
06:49:33 Aaron Hong &bull;  Yesterday, Skymaster Hayate and Automaster Ryan from Microman's Masterforce line.
06:49:33 Aaron Hong &bull;  Today, the blue and green Visoraks. 
