06:35:09 Aaron Hong &bull; Well, this is it. On the morning of Saturday here in Singapore, I may be called up
06:35:09 Aaron Hong &bull;  to report back in camp at the drop of a hat. Details pending. 
14:09:32 Rebis &bull; Did I say rifle? My goodness! What I meant to say was decapitated broom handle. 
14:09:55 Rebis &bull; Go get 'em, soldier! 
17:00:35 Predabot &bull; Man... I time for the annuall total suck, eh Aaron? =( 
17:01:52 Predabot &bull; You really need to make some reforms to your military in Singapore...  
