06:28:05 Predabot &bull; :) Me am happy now. Me got mint Fortress Maximus now!! 
06:28:35 Predabot &bull; Thank ye, aAron. 
07:11:38 Aaron Hong &bull; ...you were just S$2 short of getting Fortress Maximus? 
07:50:19 Aaron Hong  tosses spiderfrommars a red packet 
10:11:04 Aaron Hong  updated TransFans: Bunch of Buggers again 
