00:54:39 The Last Autobot &bull; This place is emptier than Dw scripts 
00:55:34 The Last Autobot &bull; Where is Ishin when you need him!?! :p 
02:38:34 Obfleur &bull; : 
02:38:50 Obfleur &bull; I hate it when they don't show my smileys mouth. 
06:28:03 Aaron Hong &bull;  
06:28:34 Aaron Hong &bull; They don't show a lot of stuff... >.> 
06:30:15 Aaron Hong &bull;  ^_^ 
06:30:36 Aaron Hong &bull; Maybe you need to hit the spacebar at a cetain timing. 
07:15:35 Obfleur &bull; :>  
07:15:45 Obfleur &bull; There it is. 
