04:36:14 saysadie &bull; transformer toys just keep getting bigger... 
07:00:54 Aaron Hong &bull; Not much haul over the weekend, save for BW Neo Dead End. Made up this evening by
07:00:54 Aaron Hong &bull;  getting the Giant Planet Minicons. 
13:17:07 Shanti418 &bull; Helo 
13:17:11 Shanti418 &bull; Alo 
13:17:33 Shanti418 &bull; You know what's not cool?  My car decided to stop working in the middle of a parking
13:17:33 Shanti418 &bull;  meter spot. 
13:18:07 Shanti418 &bull; You know what's cool?  Thanks to 21st century items such as the cel phone and laptop,
13:18:07 Shanti418 &bull;  I am neither screwed, nor bored. 
13:18:25 Shanti418 &bull; I still have to pay for the towing though. 
13:18:51 Shanti418 &bull; But right before I called them, I found $20 I stashed in my wallet in a secret place,
13:18:51 Shanti418 &bull;  so it's like I got $20 off the towing. 
