10:01:30 Aaron Hong &bull; And: http://www.vgcats.com/comics/images/070226.jpg 
18:02:36 Predabot &bull; Muahahaa! ^^ I shouldn't laugh at such nonsence, but it was actually rather fun, since
18:02:36 Predabot &bull;  in theory, it's fully possible that such a game will be made in japan.. 
