08:22:29 Predabot &bull; About me'sa? ;) 
08:22:37 Predabot &bull; Me'sa hungry. 
09:06:28 Hot Shot &bull; *gives Predabot a PB&J sandwich" 
09:18:23 Hot Shot &bull;  I think Transfans needs something that other sites don't have to draw visitors.
09:18:23 Hot Shot &bull;  Something...controversial. Maybe a "Before Karly" page... :P 
20:42:19 Aaron Hong &bull; Well, we do have this... before I started neglecting to finish it.
20:42:19 Aaron Hong &bull;  http://transfans.net/phpBB2/viewtopic.php?t=2077 
