14:57:12 Predabot &bull; Bunch of Buggers. :D I stopped following it some time ago... I think maybe the story
14:57:12 Predabot &bull;  is getting a bit too long, innit? 
14:57:34 Predabot &bull; Could you also please reveal a design-sketch for Brendocons diabolical battle-armour
14:57:34 Predabot &bull;  btw? :) 
