06:59:51 saysadie &bull; AAAAAAAAAAAAAAAAAAAHHHHHHHHHHHHHHHHHHHHHHHHHHHHHHHHHHHHHHHH 
07:00:02 saysadie &bull; ... choo 
08:49:16 Predabot &bull; Bless you. :) 
23:23:16 Aaron Hong  breaks out the mops, hands one to Pred, starts mopping 
