03:18:26 Hot Shot &bull; Since everything is so quiet, I'll throw a funny quote from another board into this
03:18:26 Hot Shot &bull;  mix: "Op and Megs still brothers eh?... Well now we know that they both came from the
03:18:26 Hot Shot &bull;  same ugly tree and hit every branch on the way down. 
13:37:20 Predabot &bull; 0_x 
