03:04:29 Aaron Hong &bull; Didn't come back with much to talk about though - NOT cool. And I was eyeing the
03:04:29 Aaron Hong &bull;  Galaxy Force Speed Minicons, then forgot about them on the way back... 
12:34:09 Predabot &bull; Hey Aaron, there's something I've been wondering about.. 
12:34:40 Predabot &bull; You buy a lot of toys and stuff, and have a big family to support, so you gotta have a
12:34:40 Predabot &bull;  pretty sweet job. 
12:34:59 Predabot &bull; What is it you supposedly do during the days? 
12:43:09 Aaron Hong &bull; Testing programs in a software company. The recent ones involve CAD and maps since
12:43:09 Aaron Hong &bull;  we're contracted by the government's public utilities arm. 
12:43:55 Aaron Hong &bull; Yeah, it's more along the lines of actual work and tess 'testing' nowadays. 
20:22:12 Aaron Hong &bull; LESS testing. GAAH. 
