16:34:50 saysadie &bull; Snakes on a Plane was the first film my BF and I saw together. Ahh mem'ries. 
16:36:22 saysadie &bull; Oops, Javascript was off, so the screen didn't jump to the bottom. We'll just call
16:36:22 saysadie &bull;  that a random comment and not a response to an extremely old topic of conversation,
16:36:22 saysadie &bull;  yes? 
