03:51:56 saysadie &bull; In the appropriate places, yes. Sorry to say but I think you missed the heyday by
03:51:56 saysadie &bull;  about 8-10 years. 
03:52:12 saysadie &bull; I'm just here for the applejuice now. 
