07:35:09 Obfleur - Milf? :o
17:23:06 Pissin' Poonani - Obby! :)
17:23:22 Pissin' Poonani - Wow! 10 hours late! Schwing!
20:06:42 Pissin' Poonani - Monkey doodle, winky woodle-poodle, oodle oo!
20:09:55 Rebis - Stewardess! Ste-you-word-ess!
20:10:09 Pissin' Poonani - More nuts, sir?
20:11:43 Pissin' Poonani - I just done a stinky. he he he.
20:14:49 Rebis - Intelligent plants. Yikes!
20:14:58 Pissin' Poonani - Eh?
20:16:12 Rebis - Dr Terror's House of Horrors. BBC1 atm.
20:16:28 Rebis - Ooh. it's Roy Castle's turn!
20:16:48 Pissin' Poonani - Dedication, ooh dedication...
21:16:31 Rebis - "You av sonk my bettlesheep!"
21:21:41 Rebis - "STATION!"
21:29:03 Pissin' Poonani - "Don't fear the Reaper!" "I hurd dat..."
21:29:52 Rebis - not watching it?
21:31:39 Pissin' Poonani - Nah-seen it loads.
21:32:42 Rebis - yer but... and?
21:34:36 Pissin' Poonani - I've literally seen it 40+ times. If I'd realised it was on then I would have,
21:34:36 Pissin' Poonani -  but it's nearly finished :(
21:36:11 Pissin' Poonani - I wanna see a version with the deleted scenes.
21:37:25 Rebis - ah, true. I knew it was on, but I was watching the Hammer film on beeb. ;)
21:40:46 Pissin' Poonani - I only just found out about Soundblaster. I suck as a TF fan :(
21:45:24 Rebis - Well, I didn't know about Soundblaster, or Twincast for that matter, until a while after
21:45:24 Rebis -  I'd started on here, either.
21:46:19 Pissin' Poonani - Picked my new monitor up today!
21:51:29 Rebis - nice. did it come with any software/game(s) that's designed to be used on a higher spec
21:51:29 Rebis -  device? ;)
21:52:35 Pissin' Poonani - No, but it did come broken!
21:52:58 Rebis - yay!
21:53:05 Rebis - Err...
21:53:46 Pissin' Poonani - One ****ing pin missing from the monitor cable! And then we notice-no floppy
21:53:46 Pissin' Poonani -  drive either! Aaaghhh!!!
21:54:18 Rebis - monitors rarely come equipped with floppy drives.
21:55:10 Pissin' Poonani - You know what I mean Rebo...
21:55:20 spiderfrommars - GO TO BED!!!
21:55:51 Pissin' Poonani - Dave, for the last time, me and Ross just don't feel that way about eaach other.
21:56:14 spiderfrommars - But this is every night now!
21:56:25 spiderfrommars - Never heard of valium? Eh?
21:57:01 Pissin' Poonani - Was he G1 or G2?
21:57:20 spiderfrommars - Jap repaint
21:57:47 Pissin' Poonani - Ah! Been to t'discotheque tha neet Dave?
21:58:12 spiderfrommars - Nope. Watched a vid. School of Rock.
21:58:23 Pissin' Poonani - Any good?
21:58:39 spiderfrommars - I liked it. Twas funny.
21:59:06 spiderfrommars - Other than that, I got up late today so I just ain't tired
21:59:26 Pissin' Poonani - I knows dat feelin'
21:59:59 spiderfrommars - Where's Rebo?
22:00:12 spiderfrommars - Us 3 tend to be the late nighters
22:00:47 Pissin' Poonani - Around this time, he likes to phone up Prof Hawking to mock his theories.
22:01:23 spiderfrommars - I know, that bastard ripped off anything Reebs ever dreamt up.
22:02:25 spiderfrommars - Actually, I heard somewhere recently that Hawking ain't all that
22:03:40 Pissin' Poonani - I won't even pretend I understand the stuff he does!
22:04:39 spiderfrommars - Or how he pulled that corker of a wife....
22:04:40 spiderfrommars - Or how he pulled that corker of a wife....
22:04:46 spiderfrommars - , must sleeeeeep
22:05:06 spiderfrommars - you know, that joke really wasn't good enough to be posted twice
22:05:09 Pissin' Poonani - Hey, one of us may as well!
22:06:48 spiderfrommars - Alright, goodnight mate :)
22:07:08 Pissin' Poonani - Night Dave :)
22:15:33 Rebis - Moo!
22:16:36 Rebis - I remembered to increase my chances of acquiring Super Oppy by 6e9% (technical term,
22:16:36 Rebis -  means 6,000,000,000.2%) earlier today. :D
22:19:26 Rebis - However, I neglected to pay attention to a radio text-in # for recognising where a sample
22:19:26 Rebis -  originally came from, although I recognised it straight-off and could easily have won
22:19:26 Rebis -  whatever the prize was (probably just recognition of being first to reply correctly).
22:19:26 Rebis -  And I managed to do that not once, twice, but thrice!
22:20:54 Pissin' Poonani - Darnation!
22:22:07 Rebis - ya. I figured it made more sense to give good navigational aid to a coach driver who
22:22:07 Rebis -  didn't have a clue where she was going, than to ignore her cries for help while punching
22:22:07 Rebis -  buttons with my fingertips.
22:23:12 Pissin' Poonani - Jolly decent of you old chap!
22:23:47 Rebis - least I could do, considering I was meant to be the one who 'had a clue' about where we
22:23:47 Rebis -  were headed.
22:25:38 Pissin' Poonani - Roads? Where we're going we don't need roads...
22:27:42 Rebis - Ah, but you have to be careful on footpaths these days. the cyclepath near me has
22:27:42 Rebis -  recently been victim to hooligans tying fishing line across it in the early evenings -
22:27:42 Rebis -  an almost invisible danger to cyclists.
22:28:54 Rebis - still, I suppose it's better than lining the tunnel with bricks...
22:30:49 Pissin' Poonani - Fishing line? That's ****ed up. Head height?
22:31:42 Rebis - neck height, well, for a sit-down cyclist, so waist height, then.
22:33:14 Pissin' Poonani - Sheeeezus. 
22:35:12 Pissin' Poonani - The c*nt gene is still alive and kicking.
22:35:13 Rebis - yup. the guy saw it, started to brake, but didn't stop in time - nice red line across his
22:35:13 Rebis -  neck, tore it down. when the paper reporters went to the scene the next day, there was
22:35:13 Rebis -  another one up, exactly the same place.
22:36:37 Pissin' Poonani - Some people just need beating with a rubber hose. And splinters under the
22:36:37 Pissin' Poonani -  finger nails-mustn't forget those.
22:39:51 Pissin' Poonani - I must away-tiredness envelopes me like an over affectionate granny.
22:39:51 Pissin' Poonani -  Hyper-Boing in 3,2,1..
22:39:59 Pissin' Poonani - BOING!
22:41:07 Rebis - you forgot to extend your Hyper-panels.
22:41:14 Rebis - No matter. ;)
22:41:34 Rebis - Ytterby!
