01:35:26 saysadie - Go go Power Rangers?
01:35:53 saysadie - GO GO GADGET... um... ROLLERSKATES!
01:55:53 Optimus Prime Rib - go go gadget pornstar!
12:43:39 Percepter - Anyone there?
13:44:22 Rebis - Probably wasn't.
15:09:32 Ultratron - Sigh
19:07:16 Metal Vendetta - *thud*
19:49:43 Optimus Prime Rib - thats the sound that follows *unzip* when going potty
20:33:47 Aaron Hong - Yes, taking hundred-pound dumps is something we'd all like to hear about.
20:34:23 Aaron Hong - Toy haul yesterday: Energon Hot Shot and Inferno FINALLY join the Aaron Hong's
20:34:23 Aaron Hong -  Energon Family.
20:58:46 Optimus Prime Rib - saw energon hotshot today.. like the paintjob
20:59:04 Optimus Prime Rib - wish I had known of his existence before I bought regular Hotshot
20:59:29 Optimus Prime Rib - bout to go get Downshift or Slugslinger
