00:27:57 saysadie - No? Aw. I thought that sounded neat... OPR! You've got some 'splainin' to doooo!!! ;)
09:19:09 Obfleur - Excellent comment by Brendocon in the sims-thread :D (Rebis - Rumble)
09:26:33 Brendocon - Well, I rock.
09:26:40 Brendocon - *atchoo*
09:26:52 Brendocon - I also sneeze. :(
