00:08:33 Aaron Hong - I'm back in.
00:09:15 Aaron Hong - Aw poop, two hours too late.
00:09:20 Aaron Hong - Umm...
00:09:27 Aaron Hong - Eh...
00:10:51 Aaron Hong - Somewhere...
00:10:55 Aaron Hong - Beyond the sea...
00:11:02 Aaron Hong - Somewhere, waiting for me...
00:11:11 Aaron Hong - My lover stands on golden sails...
00:11:20 Aaron Hong - and watches the ships, that come sailin'
00:11:24 Aaron Hong - Somewhere...
00:11:28 Aaron Hong - eyond the sea...
00:11:42 Aaron Hong - She's there, waiting for me...
00:11:51 Aaron Hong - If I could fly like birds on high...
00:12:05 Aaron Hong - Then straight to her arms, I'd come sailin'
00:12:19 Aaron Hong - It's far, beyond the stars,
00:12:30 Aaron Hong - it's near, beyond the moon
00:12:38 Aaron Hong - I know, beyond a doubt
00:12:50 Aaron Hong - my heart will lead me there soon
00:12:58 Aaron Hong - We'll meet, beyond the shore
00:13:05 Aaron Hong - We'll kiss just as before
00:13:17 Aaron Hong - Happy we'll be, beyond the sea...
00:13:26 Aaron Hong - And never again, I'll go sailin'
00:16:33 Aaron Hong - *interlude*
00:16:38 Aaron Hong - I know, beyond a doubt
00:16:53 Aaron Hong - my heart will lead me there soon
00:17:13 Aaron Hong - We'll meet, I know we'll meet, beyond the shore
00:17:19 Aaron Hong - We'll kiss just as before
00:17:25 Aaron Hong - Happy we'll be, beyond the sea...
00:17:36 Aaron Hong - And never again, I'll go sailin'
00:17:43 Aaron Hong - No more sailin'
00:17:51 Aaron Hong - So long fare well my friend
00:17:56 Aaron Hong - no more sailin'
00:18:04 Aaron Hong - no more, no more sailin'
00:18:09 Aaron Hong - no more sailin'
00:18:17 Aaron Hong - no more... sailin'
00:18:21 Aaron Hong - no more sailin'
00:18:30 Aaron Hong - no more saaaaailiiiin'
00:18:44 Aaron Hong - one more time
00:18:50 Aaron Hong - no more... no more...
00:18:57 Aaron Hong - no more sailin'
12:10:47 Rebis - err, there's a thread for that kinda talk now, Hong ol' buddy. saves the chat for, umm,
12:10:47 Rebis -  chatting, y'know?
12:23:10 Optimus Prime Rib - theres chatting in here?
12:23:23 Optimus Prime Rib - this is like bad stop motion photography
12:23:31 Rebis - could be
12:24:02 Rebis - just imagine that the conversation is being routed via Mars, or something. ;)
12:25:16 Rebis - although, considering the time differences, either of the Pioneer probes would be more
12:25:16 Rebis -  plausible.
12:29:37 Rebis - but not both. ;)
12:33:24 Impactor returns 2.0 - the board is quiet
12:34:08 Rebis - haven't heard a peep out of it since it moved from transfans2.com
12:35:36 Impactor returns 2.0 - and wheres BF?
12:36:09 Rebis - manchester?
14:08:13 Optimus Prime Rib - hes with the Maid from Sims 2
14:09:05 Optimus Prime Rib - *bumpbumpbump* stop that STOP THAT!
16:19:26 Obfleur - Hehe. :D
16:19:54 Obfleur - Sims 2 thread is updated, wee!
19:12:55 Rebis - wee? I see nothing of the kind! farting, perhaps, but no wee!
