05:06:49 saysadie - IIIIIII can't dance, IIIII can't talk,
05:07:06 saysadie - only thing about me is the way I walk,
05:07:31 saysadie - IIIIIII can't dance, IIIII can't sing,
05:08:11 saysadie - IIIII can't dance, IIII can't sing,
05:08:47 saysadie - Oops. Crap! Poopy! Excrement!
05:09:38 saysadie - Feeeeling fine... and I'll see you my friend, over and over again...
05:10:03 saysadie - Who can we get on the case... we need Perrryyyyyy Maaaaason...
05:10:41 saysadie - Someone to put you in place... calling Perryyyyyyy Maaaaason...
06:44:26 Obfleur - Pissin' and Rebis is on fire! Sadie is just weird.
07:28:03 saysadie - I prefer "unique"! I am unique. Weird is for guys who sit in the corner and eat paste.
07:28:03 saysadie -  :(
07:57:43 Pissin' Poonani - Mmrrmmphhhh?
08:06:58 saysadie - I always had my suspicions on who that guy really was... :o
08:34:37 Metal Vendetta - which guy? 
08:34:43 Metal Vendetta - *whistles*
16:59:20 Obfleur - I've just sent out some Goatse-pm's 8)
17:56:24 Rebis - sadie, you're individual. Unique takes some doing. And being unique myself, I should know.
17:56:45 Rebis - I'm all outta Ron, tho.
18:04:02 Rebis - I'm all out of Ron, I'm so lost without clues
18:04:24 Rebis - I know you were logical, Believing in Shockwave
18:05:01 Rebis - I'm all out of Ron, what am I without Poo'
18:05:28 Rebis - I don't clean toilets to say that I was Shockwave.
18:15:02 Rebis - Spaces, don'tcha just love 'em?
19:18:11 Impactor returns 2.0 - goatse scares me!
19:35:03 saysadie - I'm a unique individual. so :p And I'm also out of Ron. The board is out of Ron. We're
19:35:03 saysadie -  out of something else too, but Pissn's in the corner eating paste and he knows where
19:35:03 saysadie -  the other stuff went, I know it.
19:36:25 saysadie - Emvee is a zombie, apparently. Do zombies die if they explode after eating too many
19:36:25 saysadie -  brains, or do they just keep trying to eat brains?
19:36:39 Rebis - You're individual. I'm unique amongst individuals!
19:37:04 saysadie - aren't all individuals unique? 
19:37:22 saysadie -  that'd make you just like the rest of us. ;)
19:37:51 Rebis - nope, they're just indivisible from each other.
19:38:32 saysadie - then they aren't all that individual at all.
19:39:29 Rebis - which is why the unique stands out.
19:40:01 saysadie - then I'm unique! In my own mind. I'm unique.
19:40:05 Rebis - (because he can't get a foot in. crowded elevators, you know)
19:40:47 saysadie - it's always easier to wait for the next one, even if it does make you a little late.
19:41:15 Rebis - ah, "in your own mind". Ladies and Gentlemen of the jury, I put it to you. The defendant
19:41:15 Rebis -  claims a claim on uniqueness due to existentialism!
19:42:02 saysadie - what's your claim on uniqueness? is it any more tangible? ;)
19:42:23 Rebis - Of course it is, it resides in MY mind! ;)
19:43:08 Rebis - And, if you'll indulge me, your honour, I would like to submit it as exhibit Z!
19:43:29 saysadie - :D as your claim validates your own uniqueness to you, so does mine validate my claim!
19:43:39 Rebis - *bzzzz* *crack* plop*
19:43:52 saysadie - *My claim validate mine, even. 
19:44:30 Rebis - I've got small ears.
19:44:57 Rebis - actually, they're the right size, it's my head that's larger, to accommodate my claim on
19:44:57 Rebis -  uniqueness!
19:46:13 saysadie - I've got a very small nose... though that's not too unique, I believe it belonged to
19:46:13 saysadie -  my grandmother first.
19:46:40 Rebis - hah! I rest my case!
19:46:53 saysadie - My claim on uniqueness is purely mental. In the thinking sense, not the crazy sense...
19:46:53 saysadie -  though it could be that, who knows. ;)
19:46:55 Rebis - *shuffles papers*
19:50:07 saysadie - do you think a zombie would just keep eating brains if it exploded from eating too
19:50:07 saysadie -  many?
19:51:14 Rebis - depends if the explosion had any impact on the zombie's brain or not. Definitely a lack
19:51:14 Rebis -  of stomach is no concern to a zombie's eating habits.
19:53:03 saysadie - that makes sense. 
19:53:51 Rebis - If I was a zombie, I'd probably get another zombie (or better yet, a future victim!) to
19:53:51 Rebis -  knock off my lower jaw. That way, I'd be able to fit more in. The mouth is so limiting,
19:53:51 Rebis -  don't you find?
19:56:05 Rebis - "TransFans Chat: Without it I would never have found myself discussing zombies!"
19:58:21 saysadie - Yes! Talking, eating... it's all you can do with it really. It's surplus, like pinkies!
19:58:52 saysadie - Why couldn't zombies eat pinkies...
20:00:04 Rebis - well, if they're fresh out of brains, but there's an arm close to hand...
20:01:58 saysadie - a pinkie would do in a pinch? Yummy. why don't zombies eat their own brains? They're
20:01:58 saysadie -  obviously not all that concerned about self-preservation...
20:02:32 Rebis - the thought doesn't occur to them?
20:04:45 saysadie - :D Could be.
20:07:27 saysadie - I'm going to dash off for a bit, Rebis, you take care man! :)
20:09:48 Rebis - yar. you too.
20:40:27 Metal Vendetta - Ever see documentaries about Elvis tiwards the end of his career?
20:41:41 Metal Vendetta - He used to take so much heroin that he couldn't feel himself getting full, but
20:41:41 Metal Vendetta -  that his sole pleasure was eating...
20:42:56 Metal Vendetta - So he just used to eat huge loaves of bread stuffed with meat and gorge himself
20:42:56 Metal Vendetta -  every night...and squirrels...
20:42:57 Rebis - can't say that I have
20:43:14 Metal Vendetta - I think a zombie eating brains would be like that.
20:44:04 Rebis - only thinner?
20:44:57 Metal Vendetta - With zombies you get rigor mortis so I guess they wouldn't expand...they'd just
20:44:57 Metal Vendetta -  burst
20:46:34 Rebis - and then they'd be free to eat and eat and eat, with no fear of weight gain. Zombie - it
20:46:34 Rebis -  makes Atkins look like "See Food"
20:47:15 Rebis - "I wish I was a zombie!" - Daily Gerald
20:47:31 Metal Vendetta - Zombie chic, the new catwalk sensation
20:48:54 Rebis - different from the heroin look of the early 90s by virtue of the models all having passed
20:48:54 Rebis -  over already.
20:50:28 Metal Vendetta - Did you ever see...Urban Gothic, I think on Channel 5? With Rexy the vampire?
20:51:01 Rebis - I might have caught part of one, once.
20:52:00 Metal Vendetta - He was draining blood from supermodels, and said he single-handedly created the
20:52:00 Metal Vendetta -  "waif" look.
20:53:17 Rebis - interesting. there's a story on BBC Cult's vampires website about vamps and weightloss.
20:53:32 Impactor returns 2.0 - oh god i just saw that pop video set in the gym...
20:54:36 Metal Vendetta - ???
20:55:51 Impactor returns 2.0 - u know that dance track and the video is set in a gym its pretty much
20:55:51 Impactor returns 2.0 -  porn. its a new track-looking for a link now
20:56:05 Metal Vendetta - I'll have to check that out, funny you never really sere fat vampires. Except
20:56:05 Metal Vendetta -  Rutger Hauer in the Buffy movie, obviously.
20:58:00 Impactor returns 2.0 - eric prydz 'call on me'
20:58:20 Rebis - that's pop, is it?
20:59:00 Impactor returns 2.0 - well dance pop - but have u seen the video!... my god
20:59:06 Impactor returns 2.0 - thats porn
20:59:48 Impactor returns 2.0 - http://www.ministryofsound.com/bigtunes?ef=prydzFilth
20:59:57 Impactor returns 2.0 - click watch the video on the right
21:01:07 Rebis - unless you happen to be underage, kiddies.
21:02:17 Impactor returns 2.0 - actually that vid link isnt full streaming but u get the idea. what
21:02:17 Impactor returns 2.0 -  shocked me is they showed this on cd:uk
21:02:35 Metal Vendetta - lumme
21:02:46 Metal Vendetta - that's quite err...brb
21:03:31 Impactor returns 2.0 - id heard the tune before, but i suddenly looked round and thought '**** me'
21:07:28 Metal Vendetta - Sorry to leave you guys but
21:07:30 Metal Vendetta - boing
21:09:30 Impactor returns 2.0 - boing
21:15:14 Rebis - damn! seems everyone's nicking my catchphrase departure sig.
21:15:36 Rebis - either that or the Rebis Posse is far more extensive than I previously realised.
21:16:09 Rebis - This meance needs to be wiped out before it threatens the rest of the site.
21:16:27 Rebis - That's right! I'm calling for a posse.
21:16:35 Rebis - Err...
21:21:33 Rebis - lyrics were originally from Valerie by Steve Winwood, btw.
22:33:23 Rebis - no "boing" tonight, just "phlug!"
22:33:30 Rebis - Phlug!
