00:23:59 Jazz - Wow lots of ppls on
00:24:44 Jazz - Hi everyone
02:16:20 IronHide - huzzah
02:21:21 IronHide - I wanna be an airborne ranger.....
02:21:35 IronHide - I'm gonna live a life of danger.....
02:44:45 IronHide - WOOOOOAH!!   Amber is the color of your enery
02:46:36 Orion Pax - damn
02:51:23 IronHide - wha?
02:54:35 IronHide - WOOOOOAH!! Shades of gold displayed naturally....
10:20:21 saysadie - ... 0_o
10:20:41 saysadie - *quitely arms tranq gun*
10:21:09 saysadie - Ack, quietly even. Quitely.. quite.
10:21:44 saysadie - *shoots IronHide, shuttles him back to GD*
10:45:17 Obfleur - http://www.aftonbladet.se/nyheter/0407/11/scarletpil.jpg She rocks :o
10:48:57 Eline - :o indeed!
10:49:15 Eline - quite a lot of cleavage and makeup though
11:20:58 Rebis - PP-Message received, acted upon and forgotten
12:21:20 Mecha - only a girl could put up too much cleavage as a point of critisism >= D
12:22:42 Rebis - when talking about a girl, that is. ;)
12:23:28 Tired Tracks - when talking about another girl, that is ;-)
12:25:29 Rebis - ok, how about this:
12:26:02 Rebis - only a straight girl could put up too much cleavage as a point of criticism when talking
12:26:02 Rebis -  about another girl.
12:28:44 Rebis - hold on, Eline didn't say 'too much cleavage', Mecha did. Eline said 'quite a lot of
12:28:44 Rebis -  cleavage', which is entirely different.
12:33:16 Rebis - well, this conversation went down a bomb, eh?
12:39:59 Eline - erm, I did mean too much, you can almost see her nipples
12:40:01 Tired Tracks - Indeed
12:41:48 Eline - though apparently boys like it...
12:53:11 Mecha - I dont think shes that pretty anyway ;)
12:54:00 Rebis - can't see much character in that picture, that's for sure.
12:54:28 Mecha - just another girl selected and molded into the hollywood ideal
12:57:17 Rebis - "Go and practise your pouting!" "But, Daddy, I want to be a physicist!" "No daughter of
12:57:17 Rebis -  mine is putting her brains above her beauty! Now give your homework to the dog and get
12:57:17 Rebis -  upstairs to your vanity desk!"
12:58:16 Rebis - I watched Dead Poets' Society last night and just wondered what the flipside of the kid
12:58:16 Rebis -  who disobeys his dad to be in the play would be like.
12:58:48 Mecha - never saw that movie :(
12:59:29 Rebis - it's quite old, late 80s, Robin Williams, Ethan Hawke, boys school drama.
13:00:27 Mecha - yeah, I know it, also knew it was on tv yesterday, I just never got around to watching it
13:01:09 Rebis - ah well.
13:01:30 Mecha - Ill watch it next time, gadget, next time!
13:01:59 Rebis - not that this'll mean anything to you, then, but it kinda sticks in my mind, as when I
13:01:59 Rebis -  first watched it, one of my teachers was an ex-pupil of the school I was at (just like
13:01:59 Rebis -  RW's character).
13:02:09 Rebis - Wowsers chief!
13:10:08 Eline - Dead Poets' society is brilliant! :)
13:11:12 Computron - Yay for Ob's pic!
13:27:10 Obfleur - :D
14:49:05 Eline - hello? anyone in here? any lurkers perhaps? 
14:50:28 Rebis - Well, I don't think the lurkers would answer, for in doing so, they would immediately
14:50:28 Rebis -  lose all credibility as lurkers.
14:53:09 Eline - hmmm... true
14:53:24 Eline - so what are you, if you're not a lurker?
14:54:01 Rebis - an active member of the site. and a moderator.
14:54:42 Eline - seems like everyone's a moderator now :(
14:55:17 Rebis - not impy. shows besty's still got some standards, at least. ;)
14:55:39 Eline - :) and not brend of course
14:56:18 Rebis - are you kidding? there's low standards, and then there's outright lunacy!
14:57:13 Eline - though i wonder what would happen... can't we make him mod just for a day?
14:58:37 Rebis - you mean give him a forum to play in? Well, perhaps if we can annexe the Archive.
14:59:22 Eline - good plan! :D
15:11:24 Computron - =-o
15:21:10 Eline - erm... hello computron! :-)
15:21:26 Eline - nothing going on in here, no need to worry
15:38:23 starscreamsjets - evening
15:39:15 starscreamsjets - hmmi am always to late
15:40:46 starscreamsjets - waits
16:52:57 Rebis - or too early, depending on how you look at it.
18:43:30 Eline - too late in this case, time for bed *yawn*
18:47:13 Rebis - now this is weird. Eline's post was at 18:43:30, but my time says 18:35:50, almost 10
18:47:13 Rebis -  minutes early. O_o
18:47:54 Eline - eek!
18:48:09 Eline - my time says 18:48
18:48:23 Rebis - And now that I've drawn it's attention to the problem, the problem seems to haveresolved
18:48:23 Rebis -  itself. How very strange.
18:48:55 Eline - but comforting :)
18:49:05 Rebis - night Eline. ;)
18:49:27 Eline - goodnight Rebis! :)
19:03:35 Aaron Hong - Anyone around?
19:03:55 Aaron Hong - Came back with a bit of a toy haul yesterday.
19:04:14 Aaron Hong - Got a spare gun and missiles for Optimal Optimus,
19:05:32 Aaron Hong - AND ENERGON MIRAGE!
19:05:45 Rebis - I think I'm around, but that would depend on whether the time showing on my chat window
19:05:45 Rebis -  is anything like accurate
20:40:41 Obfleur - Five hours till work! :O OH MY GOD! *goes to bed* *tears down the walls*
20:46:45 Rebis - you've been lurkin in here all that time? 8O
21:06:12 Pissin' Poonani - Hoopla.
21:17:46 Dead Eye - moooo
22:33:56 Tired Tracks - Mad cow! MOOOOO!
