07:34:32 Obfleur - Almost ten hours late! :o
15:16:41 Brendocon - Guns don't kill people, wabbits do
16:10:25 Pissin' Poonani - I must break you.
16:38:27 Karl Lynch - Brendocon- that exact same phrase was being used as the tagline on an advert at
16:38:27 Karl Lynch -  outintheuk.com
16:38:38 Karl Lynch - do you have something to tell us about your sexuality, hmm? ;)
16:43:40 Brendocon - Why, Karl?  Y'interested? ;)
16:45:35 Karl Lynch - Depends, top or bottom? :D
16:59:52 Brendocon - Would the fact that I don't quite understand the question resolve the issue? ;)
17:00:11 Karl Lynch - Depends, want it explained? ;)
17:00:55 Brendocon - Not really ;)
17:04:29 Karl Lynch - You should're lucky Jesus isn't here! {shakes fist}
17:08:15 Karl Lynch - ^you're.  not sure where that 'should' came from ?_?
17:16:49 Obfleur - Should're. Sounds like something a drunk dude would say. :o
17:17:26 Obfleur - And the english is filled with words and phrases that don't make sense. I'm sure you
17:17:26 Obfleur -  can make up some cool explanation for should're ;)
17:37:43 Karl Lynch - Where's rebis when you finally have a use for him?
19:10:38 Karl Lynch - though his name hasn't left the 'currently online' notice...
19:11:08 Karl Lynch - I have a sneaky suspicion he just leaves his computer on Tfans o_O
