09:20:37 Aaron Hong - Don't you wish sometimes that they show the date of posting along with the time
09:20:37 Aaron Hong -  sometimes?
09:21:05 Aaron Hong - Yes, the Aaron Hong has too much of teh time on his hands.
09:21:32 Aaron Hong - Today's haul: Battle Glove Man-at-Arms and Zodac.
14:59:10 Rebis - Afaik, there's only been one occasion where there's been over 24 hrs between consecutive
14:59:10 Rebis -  posts, and even then, there was only a single midnight being straddled.
15:00:08 Rebis - On the whole, you can tell how many days ago something was written by how many times the
15:00:08 Rebis -  time resets itself. ;)
