00:00:02 Optimus Prime Rib - OOOOOOOOOOOOOOOOOOOOOOOOOOOOOOOOOOOOOOOOOOON
00:18:29 Optimus Prime Rib - palindrome time
00:18:42 Optimus Prime Rib - racecar
00:18:51 Optimus Prime Rib - poop
02:27:56 saysadie - Computron's a monkey!
02:28:04 saysadie - I knew it.
02:28:28 saysadie - If Red's banned, can I have his room?
02:36:42 Computron - Red had a room?
02:37:04 Computron - Unless by room you mean that plot of land with the dead grass near the garbage cans
02:41:41 Obfleur - Ouh, smackdown. Booya
02:43:12 Obfleur - *starts handing out bananas to the monkeys* :o
04:12:51 Obfleur - Oh, sorry. I forgot to say that you are allowed to speak!
05:04:22 saysadie - Careful Ob, monkeys fling poo when angry!
05:04:50 saysadie - *backs away from Computron*
05:32:53 Ultimate_cheetor - Hmmm...
08:10:53 Orion Pax - Me Birthday today.   YAY :(
08:11:03 Orion Pax - Bye
08:41:26 Computron - Happy Birthday!
08:41:33 Computron - *flings poo*
08:41:35 Computron - Ook!
09:06:52 Computron - http://plaza.ufl.edu/reyes11/Magic/Ob.JPG
09:20:18 Obfleur - >:O
09:20:30 Obfleur - HEHE "sug min kuk" :D
09:21:16 Obfleur - Thats awesome Compy!
09:21:34 Computron - hehe
09:22:43 Computron - Sadie and I came up with it
09:22:48 Computron - For great hilarity!
09:23:26 Obfleur - Hah, I shouldve known... you two cant be trusted!
09:23:49 Computron - http://plaza.ufl.edu/reyes11/Magic/
09:23:53 Computron - =-o
09:25:06 Computron - They're not all done yet
09:25:10 Computron - But we're getting there
09:30:19 Obfleur - Thats great :)
09:38:34 Obfleur - Oh my, the Jazz-one is great!
09:43:04 Computron - hehe
09:43:06 Computron - :)
09:56:23 Eline - brilliant! 
10:54:19 Gekigengar - good grief.
11:17:35 Obfleur - Kung fu! Wo
11:22:37 Brendocon - Brendocon wins!
11:22:59 Obfleur - Brendocon won over a five year old! 
11:27:11 Obfleur - http://www.mediacen.navy.mil/pubs/allhands/sep01/20gsm.jpg
16:30:28 saysadie - I can't think of a pic for Jazz's card!
16:32:36 Brendocon - A broken typewriter?
16:33:11 Brendocon - A Word spellcheck graphic?
16:36:30 saysadie - spellcheck graphic's an idea, but I don't have Word. ;) I now have an idea, however!
16:36:30 saysadie -  And it is good. Thanks!
18:02:59 Metal Vendetta - Nice one Comps ;)
23:01:51 Rebis - 2+2 really does =5, you know, but only in about 25% of cases.
