01:11:12 Ultimate_cheetor - If you read this, send me a PM.  I swear, it'll be fun. Anything. >_>
02:15:30 Computron - Hi Sadie!
02:15:40 Computron - You suck!
02:15:43 Computron - :(
04:00:56 saysadie - Bah. Nate is creepy, and he has cooties!
04:01:27 saysadie - Damn. Forgot to purple that. :o
04:35:07 Obfleur - PURPLE.
07:53:04 Obfleur - Wooooooooooooooooooooo!!
08:50:32 Obfleur - Yaaaaaaaaaaaaaaaaaaaaaaaaaaay!!
10:13:18 Obfleur - Time to go home from work. Yaaaaaaaaaaaaaaaaaaaaaay!!
11:01:20 Brendocon - For Rebis...
11:01:22 Brendocon - http://www.amazon.co.uk/exec/obidos/ASIN/B0000AISIY/qid%3D1091545203/202-1059966-87526
11:01:22 Brendocon - 25
11:01:42 Brendocon - *bungs that stray 25 onto the end of the url*
12:53:15 Redstreak - two words:  Alpha-Q!  i swear no one noticed the phonics of that name til the guy at
12:53:15 Redstreak -  OTFCC asked how they got it by the censors...
13:13:34 Computron - hahahahahaha
13:13:40 Computron - I just noticed it myself
13:13:46 Computron - Now I can't stop saying it.
13:13:47 Computron - :(
13:13:50 Computron - Alpha-Q!
13:40:37 Redstreak - alpha-q!
13:49:31 Redstreak - it is the greatest name ever, you realize
15:57:58 Best First - Ill **** you! you ****er!
16:16:26 Computron - Shut up you slagging slagger.
16:16:32 Computron - Alpha-Q!
16:45:01 Mecha - (peeks)
17:30:17 saysadie - "Look Around You"? Scary...
17:30:43 saysadie - Alpha-Q?
17:31:08 saysadie - *says aloud* ... *rolls eyes*
17:32:08 saysadie - Now *I* can't stop saying it... Damnit! 0_o
17:32:37 saysadie - Where's Ob? I need pizza. :(
17:32:56 saysadie - Day 2 without coffee... *cires*
17:33:08 saysadie - *cries
18:30:43 Redstreak - sadie shouldnt quit coffee :(
18:30:58 Redstreak - damn color changes!
19:39:31 Orion Pax - Alpha-Q?!
20:44:26 Obfleur - Work starts in.. six hours! Almost time for sleep.
20:45:42 Obfleur - Time for some Goatse, then off to bed!! Yay
21:15:06 Rebis - Thanks ants! Thants!
