01:32:09 Optimus Prime Rib - When they come to ethnicaly cleanse me, 
01:32:12 Optimus Prime Rib - will you speak out?
01:32:16 Optimus Prime Rib - will you defend me?
09:18:49 Centurion - Nah. I'll probably just sit at the back with a couple of friends and snigger at all
09:18:49 Centurion -  the mistakes being made.
20:39:28 Optimus Prime Rib - curse you and your vegan ways!
