06:47:02 Metal Vendetta - Argh
06:47:20 Metal Vendetta - Quiet today...
06:47:33 Metal Vendetta - *begins to tapdance
06:47:56 Metal Vendetta - Staaart spreading the neeeewwwsss...
06:48:09 Metal Vendetta - I'm leeaaaving tooodaaaay...
06:50:15 Metal Vendetta - *dah dah da-da-da-da dah dah da-da-da-da*
06:50:33 Metal Vendetta - I wannaaa beee a paaart of it...
06:50:59 Metal Vendetta - Neeeeewww Yooooorrk Neeeeeewww Yoooooooooooork!
06:51:04 Metal Vendetta - *dah dah da-da-da-da dah dah da-da-da-da*
06:52:51 Metal Vendetta - These vagabond shooooeeeeeeeesss....
06:53:17 Metal Vendetta - Are looooonging to straaaaaayyy...
06:53:24 Metal Vendetta - *dah dah da-da-da-da dah dah da-da-da-da*
06:53:50 Metal Vendetta - Right through the very heeeeeaaaaaart of it.
06:54:12 Metal Vendetta - Neeeeewww Yooooorrk Neeeeeeeeeeewww YoooooOOOOOooooooork!!!!
06:54:24 Metal Vendetta - *dah dah da-da-da-da dah dah da-da-da-da*
06:54:33 Metal Vendetta - *falls over
10:27:14 Brendocon - Take my love
10:27:18 Brendocon - Take my land
10:27:25 Brendocon - Take me where I cannot stand
10:27:29 Brendocon - I don't care
10:27:33 Brendocon - I'm still free
10:27:40 Brendocon - You can't take the sky from me
10:27:46 Brendocon - Send me out
10:27:51 Brendocon - To the black
10:27:59 Brendocon - Tell 'em I ain't comin' back
10:28:02 Brendocon - Burn the land
10:28:07 Brendocon - Boil the sea
10:28:10 Brendocon - You can
10:28:22 Brendocon - 't take the sky from me
10:28:30 Brendocon - *whistles*
10:28:36 Brendocon - There's no place I can be
10:28:46 Brendocon - Since I found Serenity, you can't take the sky from me
10:40:01 Brendocon - But I don't know what to do with those tossed salads and scrambled eggs
10:40:06 Brendocon - They're calling again
10:40:17 Brendocon - Goodnight everybody, we love you!
12:07:19 Computron - This is all of Niska's money...
12:08:01 Computron - Mercy is the mark of a great man. *stab* I guess I'm only a good man. *stab* I guess
12:08:01 Computron -  I'm alright.
12:59:20 Rebis - I have many names, but although I respond to "Oi! You!", it is not one of them. Who am I?
17:25:16 saysadie - You're the Muffin Man!
17:28:59 saysadie - Haaaave yuve you seen the Muffin man,
17:29:26 saysadie - yuve? ah crap.
17:29:51 saysadie - *clears throat*
17:30:10 saysadie - Haaaaave you seen the muffin man,
17:30:33 saysadie - the muffin man,
17:31:38 saysadie - the muffin man
17:32:07 saysadie - Haaaave you seen the muffin man,
17:32:45 saysadie - ..... something something something something something!
17:36:50 Pissin' Poonani - It's shpadoinkle day!
19:06:48 Big Z - anyone else present?
19:32:47 Rebis - Isn't it? Wasn't it? Mmm? Hmm?
