08:16:21 saysadie - Hmm hmm hmm hmm
08:16:29 saysadie - hmm hmm hmm hmm...
08:24:11 Aaron Hong - Once there was this boy who
08:24:27 Aaron Hong - got hooked on a message board and he couldn't come to school
08:24:56 Aaron Hong - but when he finally got there
08:25:14 Aaron Hong - they saw stick marks all over his body
08:25:23 Aaron Hong - He said that it was from when
08:26:22 Aaron Hong - saysadie thwacked him so hard
08:37:45 saysadie - It's scary how you guessed the exact song I was thinking of... and then changed the
08:37:45 saysadie -  lyrics. (Er, not that that part was surprising or anything... ;) )
09:09:39 Brendocon - well, it's hardly stunning that he guessed the song, all things considered ;)
09:43:21 Aaron Hong - Sorry, just bashed through 4km of wild vegetation at 4am Tuesday morning and I'm not
09:43:21 Aaron Hong -  all together quite yet... :D
10:26:41 Pissin' Poonani - Bay-beee...that Hong, H-Hong, Hong, Hong (from 'Hong Song' by Sisqo)
12:21:42 Metal Vendetta - When I was jsut a little baby boy my mama used to tell me these crazy things
12:22:01 Metal Vendetta - She used to tell me my daddy was an evil man she used to tell me he hated me
12:22:22 Metal Vendetta - But then I got a little bit older and I realised she was the crazy one
12:22:50 Metal Vendetta - And there was nothing I could do or say to try to change it 'cause that's just
12:22:50 Metal Vendetta -  the way she was...
12:23:32 Metal Vendetta - ...Serial killer hiding murder material in a cereal box on top of your stereo
12:23:58 Metal Vendetta - Here we go again we're out of our medecine out of our minds
12:24:11 Metal Vendetta - And we want in yours let us in!
13:27:10 Redstreak - singing Transfans.  GOD HELP US ALL
16:42:32 Brendocon - I need to be myself
16:42:40 Brendocon - I can't be no-one else
16:42:53 Brendocon - I'm feeling supersonic, give me gin and tonic
16:43:03 Brendocon - You can have it all but
16:43:14 Brendocon - How much do you want it?
16:43:24 Brendocon - You make me laugh
16:43:32 Brendocon - Give me your autograph
16:43:42 Brendocon - Can I ride with you in your BMW?
16:43:56 Brendocon - You can sail with me in your yellow submarine
16:44:05 Brendocon - *in my.  ahem
16:44:13 Brendocon - You need to find out
16:44:27 Brendocon - 'cause no-one's gonna tell you what I'm on about
16:44:41 Brendocon - You need to find a way for what you want to say
16:44:51 Brendocon - But before tomorrow...
17:25:52 saysadie - Transfans: The Musical! or: Transfans Singing Badly.
17:26:50 Brendocon - Oh, baby, I hear the blues a-calling
17:26:59 Brendocon - Tossed salads and scrambled eggs
17:27:04 Brendocon - h my
17:27:23 Brendocon - Well, maybe I seem a bit confused
17:27:33 Brendocon - Well maybe, but I got you pegged!
17:27:49 Brendocon - But I don't know what to do with these tossed salads and scrambled eggs
17:27:58 Brendocon - They're calling again
17:28:09 Brendocon - Goodnight, Transfans, we love you!
17:38:24 saysadie - Brend's "singing" cracked my monitor. :(
17:59:12 Redstreak - mine started smoking
18:49:35 saysadie - Something illegal? I could have it arrested for that.
19:25:56 Rebis - I don't think the law covers monitors. At least, not in the perp sense, anyway.
19:42:01 Rebis - If I'm right, then we should all be on our guard. Those menacing CRTs, LCDs and TFTs
19:42:01 Rebis -  could rise up at any time!
21:42:23 Rebis - Too dangerous to keep
21:42:36 Rebis - Too feeble to let go
21:42:56 Rebis - And you want to bite the hand
21:43:06 Rebis - Shoulda stopped this long ago
21:43:18 Rebis - Go now, you've been set free
21:43:34 Rebis - Another month or so you'll be poisoning me
21:43:59 Rebis - With your lovely smile
21:44:17 Rebis - I see you slither away with your skin and your tail
21:44:42 Rebis - Your flickering tongue and your rattling scales
21:44:58 Rebis - Like a real reptile
21:45:12 Rebis - Had you coiled around my arm
21:45:29 Rebis - How could you ever know
21:45:46 Rebis - How I loved your diamond eyes
21:46:09 Rebis - But that was long ago...
23:32:18 Dead Eye - mooooo
23:32:54 Dead Eye - I love diamonds too :D.
23:32:59 Dead Eye - nds are forever.
23:33:16 Dead Eye - Diamonds....take her breath away.
23:33:35 Dead Eye - Diamonds........that'll shut 'er up :D.
23:33:41 Dead Eye - lol
23:33:47 Dead Eye - j/k
