21:12:57 Aaron Hong - No, I mean special curry in the literal sense... curry in Japan is completely
21:12:57 Aaron Hong -  different from the normal stuff, it's not so hot for one thing. You soak your rice
21:12:57 Aaron Hong -  in it. It's class.
