06:22:47 Optimus Prime Rib - wow that last post by me is almost 2 days old 
07:39:03 Aaron Hong - Will be out toyhunting tomorrow... wait.
07:39:18 Aaron Hong - :)
20:09:03 Ultratron - Whoa the huge conversation is still there
22:13:43 Optimus Prime Rib - BLARGH
22:43:11 The Last Autobot - kaboom
22:43:24 The Last Autobot - crash
