01:42:35 Computron - *sneaks in*
01:42:42 Computron - *steals Ob's package*
01:42:43 Computron - *leaves*
01:47:26 saysadie - That is just one of the most worrying things ever.
01:47:55 saysadie - Comps likes stealing people's packages. 
02:11:55 Computron - The larger the package the better!
02:57:18 Obfleur - Hey!
02:57:24 Computron - =-o
02:57:24 Obfleur - My package... :(
02:57:45 Computron - Chat at the same time. =-o
02:57:48 Computron - Wow
02:58:41 Obfleur - Sweet jesus monkeyballs. That was awesome
02:59:13 Computron - Smokescreen is cool ain't he? I almost forgot to include the instructions when I was
02:59:13 Computron -  packing everything. =-o
02:59:18 Computron - That woulda been embarrassing
02:59:52 Obfleur - "Almost forgot"? Do you know how hard it was to transform him without the instructions
02:59:52 Obfleur -  :(
03:00:20 Computron - :(
03:00:21 Obfleur - I spent the whole evening with him, hehe
03:01:00 Obfleur - I even searched transformerhomage.com for instructions.. but nothing! OH well, my brain
03:01:00 Obfleur -  got some exercice at least
03:01:57 Obfleur - I actually thought that you didn't give me the instructions just to be cruel
03:02:13 Computron - I coulda swore I put the instructions in there...
03:02:26 Computron - Maybe they slipped out somehow? =/
03:03:34 Obfleur - Eh, oh well. It doesn't matter to me. I managed to transform him, and I actually
03:03:34 Obfleur -  enjoyed the challenge ;)
03:04:06 Computron - How about the other three toys? Good, bad, impy?
03:05:22 Obfleur - Hot Shot is cool as a car (thats why I wanted him). But his robotform is just ugly. I
03:05:22 Obfleur -  didn't even transform him. Prowl is cool though, as well as Ravage.
03:06:37 Computron - Cool. Glad you enjoyed it. :)
03:06:47 Computron - "It brings warm feelings to my heart" /Yoda
03:06:48 Computron - =-o
03:07:30 Obfleur - Hehe you are so wise Compy.
03:07:57 Computron - And huge. Don't forget huge.
03:08:01 Computron - =-o
03:08:20 Obfleur - Yeah. Sorry! You are so huge, wise and sexy.
03:08:56 Computron - hehe
03:10:14 Computron - ANd once again the chat is rated R for Ridiculously Awesome.
03:10:37 Obfleur - Yay!
03:11:23 Obfleur - http://whitelead.com/jrh/ISPs/index.html Coolness. It's work-friendly pr0n! It doesn't
03:11:23 Obfleur -  contain any humans.
03:11:53 Computron - hahahahahahaha
03:12:05 Computron - That is awesome
03:12:15 Computron - In a completely non-arousing way.
03:12:29 Obfleur - Hehe, but yet; It's pr0n!
03:13:31 Computron - http://whitelead.com/jrh/ISPs/13_c.JPG
03:13:35 Computron - oh man that's hot
03:14:23 Obfleur - >;)
03:15:40 Obfleur - "Swedish babes on the beaches of Kreta" thats hot though.
03:16:04 Computron - =-o
03:17:38 Obfleur - It's horrible. Some dude has taken pictures of topless girls at the beach; then he
03:17:38 Obfleur -  spreds them over the whole internet.
03:18:29 Obfleur - Imagine you are surfing the web, and all of a sudden a picture of you halfnaked turns
03:18:29 Obfleur -  up. Woho!
03:18:40 Computron - =-o
03:18:48 Computron - Well I'm so sexy that it doesn't bother me
03:19:04 Computron - >.>
03:19:17 Obfleur - Yeah I know. I've seen your package. >:D
03:19:28 Computron - hehe
03:19:55 Computron - And a new injoke was born. I wonder if Impy wants a package from one of us?
03:21:16 Obfleur - How many injokes do we have? One million? I'm sure Impy would love a package. Why
03:21:16 Obfleur -  wouldnt he? :o
03:21:52 Computron - No person can resist a good package
03:22:04 Computron - And on that, I need to get some sleep.
03:22:11 Obfleur - Impy's a person now?
03:22:24 Computron - I know, scary isn't it? :(
03:22:30 Obfleur - You go ahead and get some sleep. I'll watch the chat.
03:22:36 Computron - hehe, G'Night Ob
03:22:44 Obfleur - Goodnight!
03:22:46 Computron - Or whatever the hell time it is in Sweden-Land
03:23:03 Obfleur - Hehe, 9:30 in the morning
03:23:13 Computron - Close enough. ;) Night!
03:26:57 Optimus Prime Rib - hey OB
03:30:50 Obfleur - Hey!
03:32:00 saysadie - I refuse to believe that Impy is a person. I have seen no proof!
03:32:26 saysadie - Likewise, I refuse to believe any of you exist, as I've seen no proof.
03:32:58 saysadie - so Xp
03:35:48 Obfleur - I can send you a package to proof that I exist :o
03:35:52 Obfleur - prove...
03:39:53 saysadie - Er... no Ob. You can keep your package. :o
03:40:21 saysadie - Better yet... send it to Comps!
03:49:11 Obfleur - :(
03:53:23 Obfleur - Hah, I wrote even smaller than you did...
04:05:13 the uiltmate prime fan - BWAAAA!!!!
04:06:26 the uiltmate prime fan - Damnit, my timings horrible. 
08:48:36 Best First - Bunnies! Bunnies! It must be Bunnies!
08:48:43 Best First - or maybe midgits
10:28:10 Optimus Prime Rib - Midget Bunnies?
11:41:30 Gekigengar - midget bunnies?
11:42:00 Gekigengar - i am actually talking to other members, only in real time.... whoa.
11:42:07 Optimus Prime Rib - yeah
11:42:16 Optimus Prime Rib - midget bunnies
11:42:54 Gekigengar - this chat has just sunk to a new level.... too bad it can't be locked as well....
11:42:54 Gekigengar -  midget bunnies
11:43:21 Optimus Prime Rib - i defend my right to speak on the behalf of midget bunnies
11:43:52 Gekigengar - no chance they are employed hugh heffner?
11:44:11 Optimus Prime Rib - larry flynt
11:44:35 Optimus Prime Rib - ive also got a large supply of legless dogs
11:44:44 Gekigengar - i bet you they own a room at the top floor of a 5 star hotel.
11:44:51 Optimus Prime Rib - they're like cuddly throw pillows
11:45:03 Optimus Prime Rib - they never run away
11:45:08 Gekigengar - doggies in a blanket.
11:46:37 Gekigengar - time for the annual midget bunnies decapitation... err i mean honoration.
11:47:16 Optimus Prime Rib - hehe
11:47:20 Gekigengar - kill the wabbit! kill the wabbit! kill the wabbit! [/elmer fudd opera]
11:48:18 Optimus Prime Rib - hehe my last name is elmer
11:48:53 Gekigengar - as long as you don't have a friend named bugs.
11:49:05 Gekigengar - okay... bye all.
14:21:05 Rebis - Bile Buy-All: Everything Liver-Related Must Go!
16:42:27 Best First - his toys are kind of hairy
17:30:16 Brendocon - should that be toes?
17:30:41 Brendocon - this is my verse.  Hello?
17:57:32 Rebis - This is my rifle
17:57:39 Rebis - This is my gun
17:57:51 Rebis - This is for fighting
17:58:08 Rebis - This is for transforming into a Decepticon leader!
17:59:25 Best First - his eyes are beady
18:44:15 saysadie - Who? Elmer? Or Rebis?
18:45:03 saysadie - Who's Elmer? I think I'm lost...
19:00:41 Rebis - I'm chaos, and he's mayhem. We're a double act
23:23:02 Gekigengar - ever since we became part of transfans, we have always been lost.
