05:46:53 Obfleur - Bong!
08:33:52 Brendocon - They played that "call on me" song on Radio 1's ten hour takeover last week
08:34:15 Brendocon - Immediately after it finished, they had a caller on saying "right, you've played that
08:34:15 Brendocon -  crap - now give us the original"
08:34:19 Brendocon - and they did
08:34:26 Brendocon - w00t
10:58:21 Obfleur - Come again?
16:58:58 Obfleur - Oh, okey...
